…
## Obtain data from the OAM using the GUI

## Create a union set that removes duplicates

``` r
library(tidyverse)
ugoe <- readr::read_delim("data/oam_ugoe.csv", delim = ";")
umg <- readr::read_delim("data/oam_umg.csv", delim = ";")

union_goe <- dplyr::union(ugoe, umg)
union_goe
#> # A tibble: 14,477 x 7
#>    oaColorName publicationId  year publisherId publisherName journalId
#>    <chr>       <chr>         <dbl> <chr>       <chr>         <chr>    
#>  1 Grün        pub.10000013…  2015 pblshr.100… American Mat… jour.106…
#>  2 Closed      pub.10000087…  2016 pblshr.100… AIP Publishi… jour.107…
#>  3 Gold        pub.10000287…  2016 pblshr.100… American Soc… jour.104…
#>  4 Closed      pub.10000394…  2016 pblshr.100… Elsevier      jour.131…
#>  5 Bronze      pub.10000779…  2017 pblshr.100… Wiley         jour.131…
#>  6 Gold        pub.10000805…  2015 pblshr.100… Springer Nat… jour.104…
#>  7 Gold        pub.10000903…  2016 pblshr.100… eLife         jour.104…
#>  8 Gold        pub.10000938…  2016 pblshr.100… Springer Nat… jour.104…
#>  9 Closed      pub.10001056…  2016 pblshr.100… Elsevier      jour.113…
#> 10 Closed      pub.10001088…  2016 pblshr.100… Wiley         jour.105…
#> # … with 14,467 more rows, and 1 more variable: journalTitle <chr>
```

## How many articles were co-published?

``` r
dplyr::intersect(ugoe, umg)
#> # A tibble: 269 x 7
#>    oaColorName publicationId  year publisherId publisherName journalId
#>    <chr>       <chr>         <dbl> <chr>       <chr>         <chr>    
#>  1 Gold        pub.10000903…  2016 pblshr.100… eLife         jour.104…
#>  2 Gold        pub.10001098…  2016 pblshr.100… Public Libra… jour.103…
#>  3 Gold        pub.10005667…  2016 pblshr.100… AIP Publishi… jour.104…
#>  4 Closed      pub.10023858…  2017 pblshr.100… Springer Nat… jour.111…
#>  5 Grün        pub.10034634…  2015 pblshr.100… Springer Nat… jour.101…
#>  6 Gold        pub.10039665…  2016 pblshr.100… Public Libra… jour.103…
#>  7 Gold        pub.10041711…  2016 pblshr.100… Springer Nat… jour.103…
#>  8 Gold        pub.10045043…  2015 pblshr.100… Public Libra… jour.103…
#>  9 Closed      pub.10050300…  2015 pblshr.100… Springer Nat… jour.131…
#> 10 Gold        pub.10058415…  2016 pblshr.100… Hindawi       jour.104…
#> # … with 259 more rows, and 1 more variable: journalTitle <chr>
```
…
